jdk.certpath.disabledAlgorithms=MD2, SHA3_256, SHA3_384, SHA3_512, SHA224, SHA1, MD5, DSA, RSA keySize < 3072
jdk.tls.disabledAlgorithms=DH keySize < 3072, TLSv1.1, TLSv1, SSLv3, SSLv2, RSAPSK, TLS_RSA_WITH_AES_256_CBC_SHA256, TLS_RSA_WITH_AES_256_CBC_SHA, TLS_RSA_WITH_AES_128_CBC_SHA256, TLS_RSA_WITH_AES_128_CBC_SHA, TLS_RSA_WITH_AES_256_GCM_SHA384, TLS_RSA_WITH_AES_128_GCM_SHA256, DHE_DSS, RSA_EXPORT, DHE_DSS_EXPORT, DHE_RSA_EXPORT, DH_DSS_EXPORT, DH_RSA_EXPORT, DH_anon, ECDH_anon, DH_RSA, DH_DSS, ECDH, AES_256_CCM, AES_128_GCM, AES_128_CCM, AES_128_CBC, 3DES_EDE_CBC, DES_CBC, RC4_40, RC4_128, DES40_CBC, RC2, HmacSHA1, HmacMD5
jdk.tls.legacyAlgorithms=
